################################
#                       H #X   #
########################  #  # #
#X  X X X#                     #
#       ###################### #
#                            # #
#     ################C     X# #
#   X####################      #
#  X############################
# X#############################
#                              #
###########################X   #
############################X  #
#############################  #
#                           #  #
#  X X####################X    #
# ##############################
#  ##XXXXXXXXXXXXXXXXXXXXXXXXXX#
#  ##X                     C   #
#  ##  XXXXXXXXXXXXXXXXXXXXXX  #
#     ######################## #
############################## #
#                              #
################################